…
```r
deserts %>% 
  group_by(genus, species) %>% 
  summarise(observations_n = n()) %>% 
  arrange(desc(observations_n))
```

```
## `summarise()` has grouped output by 'genus'. You can override using the `.groups` argument.
```

```
## # A tibble: 48 x 3
## # Groups:   genus [26]
##    genus           species      observations_n
##    <chr>           <chr>                 <int>
##  1 Dipodomys       merriami              10596
##  2 Chaetodipus     penicillatus           3123
##  3 Dipodomys       ordii                  3027
##  4 Chaetodipus     baileyi                2891
##  5 Reithrodontomys megalotis              2609
##  6 Dipodomys       spectabilis            2504
##  7 Onychomys       torridus               2249
##  8 Perognathus     flavus                 1597
##  9 Peromyscus      eremicus               1299
## 10 Neotoma         albigula               1252
## # … with 38 more rows
```
…
9. Which two species have, on average, the highest weight? Once you have identified them, make a new column that is a ratio of `weight` to `hindfoot_length`. Make a plot that shows the range of this new ratio and fill by sex.

```r
deserts %>% 
  filter(weight!="NA") %>% 
  group_by(species) %>% 
  summarize(mean_weight=mean(weight, na.rm=T)) %>% 
  arrange(desc(mean_weight))
```

```
## # A tibble: 22 x 2
##    species      mean_weight
##    <chr>              <dbl>
##  1 albigula           159. 
##  2 spectabilis        120. 
##  3 spilosoma           93.5
##  4 hispidus            65.6
##  5 fulviventer         58.9
##  6 ochrognathus        55.4
##  7 ordii               48.9
##  8 merriami            43.2
##  9 baileyi             31.7
## 10 leucogaster         31.6
## # … with 12 more rows
```

```r
deserts %>%
  filter(species=="albigula" | species=="spectabilis") %>%
  mutate(wt_hfl_ratio=weight/hindfoot_length)
```

```
## # A tibble: 3,756 x 14
##    record_id month   day  year plot_id species_id sex   hindfoot_length weight
##        <dbl> <dbl> <dbl> <dbl>   <dbl> <chr>      <chr>           <dbl>  <dbl>
##  1         1     7    16  1977       2 NL         M                  32     NA
##  2         2     7    16  1977       3 NL         M                  33     NA
##  3        11     7    16  1977       5 DS         F                  53     NA
##  4        17     7    16  1977       3 DS         F                  48     NA
##  5        20     7    17  1977      11 DS         F                  48     NA
##  6        22     7    17  1977      15 NL         F                  31     NA
##  7        30     7    17  1977      10 DS         F                  52     NA
##  8        38     7    17  1977      17 NL         M                  33     NA
##  9        42     7    18  1977      18 DS         F                  46     NA
## 10        58     7    18  1977      12 DS         M                  45     NA
## # … with 3,746 more rows, and 5 more variables: genus <chr>, species <chr>,
## #   taxa <chr>, plot_type <chr>, wt_hfl_ratio <dbl>
```
…
