…
```r
gapminder %>% 
  group_by(continent, year) %>%
  summarize(min_lifeExp=min(lifeExp),
            mean_lifeExp=mean(lifeExp),
            max_lifeExp=max(lifeExp))
```

```
## `summarise()` has grouped output by 'continent'. You can override using the `.groups` argument.
```

```
## # A tibble: 60 x 5
## # Groups:   continent [5]
##    continent  year min_lifeExp mean_lifeExp max_lifeExp
##    <fct>     <int>       <dbl>        <dbl>       <dbl>
##  1 Africa     1952        30           39.1        52.7
##  2 Africa     1957        31.6         41.3        58.1
##  3 Africa     1962        32.8         43.3        60.2
##  4 Africa     1967        34.1         45.3        61.6
##  5 Africa     1972        35.4         47.5        64.3
##  6 Africa     1977        36.8         49.6        67.1
##  7 Africa     1982        38.4         51.6        69.9
##  8 Africa     1987        39.9         53.3        71.9
##  9 Africa     1992        23.6         53.6        73.6
## 10 Africa     1997        36.1         53.6        74.8
## # ... with 50 more rows
```
…
**5. How has life expectancy changed between 1952-2007 for each continent?**

```r
gapminder %>% 
  group_by(continent, year) %>% 
  filter(between(year, 1952,2007)) %>% 
    summarize(mean_lifeExp=mean(lifeExp))
```

```
## `summarise()` has grouped output by 'continent'. You can override using the `.groups` argument.
```

```
## # A tibble: 60 x 3
## # Groups:   continent [5]
##    continent  year mean_lifeExp
##    <fct>     <int>        <dbl>
##  1 Africa     1952         39.1
##  2 Africa     1957         41.3
##  3 Africa     1962         43.3
##  4 Africa     1967         45.3
##  5 Africa     1972         47.5
##  6 Africa     1977         49.6
##  7 Africa     1982         51.6
##  8 Africa     1987         53.3
##  9 Africa     1992         53.6
## 10 Africa     1997         53.6
## # ... with 50 more rows
```
…
**6. We are interested in the relationship between per capita GDP and life expectancy; i.e. does having more money help you live longer?**

```r
gapminder %>% 
  select(gdpPercap, lifeExp) %>% 
  arrange(gdpPercap)
```

```
## # A tibble: 1,704 x 2
##    gdpPercap lifeExp
##        <dbl>   <dbl>
##  1      241.    45.0
##  2      278.    46.5
##  3      299.    42.1
##  4      300.    32.5
##  5      312.    42.6
##  6      329.    35.9
##  7      331     36.3
##  8      336.    45.0
##  9      339.    39.0
## 10      344.    38.0
## # ... with 1,694 more rows
```
…
**7. Which countries have had the largest population growth since 1952?**

```r
gapminder %>%
  select(year, pop, country) %>%
  filter(year==1952|year==2007) %>%
  group_by(country) %>%
  summarize(pop_growth=diff(pop)) %>%
  arrange(desc(pop_growth))
```

```
## # A tibble: 142 x 2
##    country       pop_growth
##    <fct>              <int>
##  1 China          762419569
##  2 India          738396331
##  3 United States  143586947
##  4 Indonesia      141495000
##  5 Brazil         133408087
##  6 Pakistan       127924057
##  7 Bangladesh     103561480
##  8 Nigeria        101912068
##  9 Mexico          78556574
## 10 Philippines     68638596
## # ... with 132 more rows
```
…
