…
```
## `summarise()` has grouped output by 'Veg_Canopy'. You can override using the `.groups` argument.
```

```
## # A tibble: 23 x 6
## # Groups:   Veg_Canopy [15]
##    Veg_Canopy Diversity_BirdS~ mean_Rich_BirdS~ min_Rich_BirdSp~
##         <dbl>            <dbl>            <dbl>            <dbl>
##  1       4                1.92             11                 11
##  2       4                1.65             11                 11
##  3       3.88             1.66             10                  8
##  4       3.88             2.01             10                  8
##  5       3.78             1.76             11                 11
##  6       3.75             1.62             10.3                8
##  7       3.75             1.16             10.3                8
##  8       3.75             1.46             10.3                8
##  9       3.63             1.71             10                 10
## 10       3.57             1.68             11                 11
## # ... with 13 more rows, and 2 more variables: max_Rich_BirdSpecies <dbl>,
## #   n <int>
```
…
