Lab 9 Homework
…
colleges_v2<-colleges%>%
  janitor::clean_names()
colleges_v2

## # A tibble: 341 x 10
##    instnm city  stabbr zip   adm_rate sat_avg pcip26 costt4_a c150_4_pooled
##    <chr>  <chr> <chr>  <chr>    <dbl>   <dbl>  <dbl>    <dbl>         <dbl>
##  1 Gross El C CA     9202       NA      NA 0.0016     7956        NA    
##  2 Colle Visa CA     9327       NA      NA 0.0066     8109        NA    
##  3 Colle San  CA     9440       NA      NA 0.0038     8278        NA    
##  4 Ventu Vent CA     9300       NA      NA 0.0035     8407        NA    
##  5 Oxnar Oxna CA     9303       NA      NA 0.0085     8516        NA    
##  6 Moorp Moor CA     9302       NA      NA 0.0151     8577        NA    
##  7 Skyli San  CA     9406       NA      NA 0          8580         0.233
##  8 Glend Glen CA     9120       NA      NA 0.002      9181        NA    
##  9 Citru Glen CA     9174       NA      NA 0.0021     9281        NA    
## 10 Fresn Fres CA     93741       NA      NA 0.0324     9370        NA    
## #  with 331 more rows, and 1 more variable: pftftug1_ef <dbl>

Which cities in California have the highest number of colleges?

colleges_v2 %>% 
  select(city) %>% 
  count(city, sort=T)

## # A tibble: 161 x 2
##    city              n
##    <chr>         <int>
##  1 Los Angeles      24
##  2 San Diego        18
##  3 San Francisco    15
##  4 Sacramento       10
##  5 Berkeley          9
##  6 Oakland           9
##  7 Claremont         7
##  8 Pasadena          6
##  9 Fresno            5
## 10 Irvine            5
## #  with 151 more rows
…
The column COSTT4_A is the annual cost of each institution. Which city has the highest average cost? Where is it located?

colleges_v2 %>% 
  group_by(city) %>% 
  summarize(avg_cost=mean(costt4_a, na.rm=T))%>% 
  arrange(desc(avg_cost))

## # A tibble: 161 x 2
##    city                avg_cost
##    <chr>                  <dbl>
##  1 Claremont              66498
##  2 Malibu                 66152
##  3 Valencia               64686
##  4 Orange                 64501
##  5 Redlands               61542
##  6 Moraga                 61095
##  7 Atherton               56035
##  8 Thousand Oaks          54373
##  9 Rancho Palos Verdes    50758
## 10 La Verne               50603
## #  with 151 more rows
…
