…
```r
grizzly
```

```
## # A tibble: 494 x 3
##    bear.id longitude latitude
##      <dbl>     <dbl>    <dbl>
##  1       7     -149.     62.7
##  2      57     -153.     58.4
##  3      69     -145.     62.4
##  4      75     -153.     59.9
##  5     104     -143.     61.1
##  6     108     -150.     62.9
##  7     115     -152.     68.0
##  8     116     -147.     62.6
##  9     125     -157.     60.2
## 10     135     -156.     58.9
## # … with 484 more rows
```
…
```r
wolves
```

```
## # A tibble: 1,986 x 23
##    pop     year age.cat sex   color   lat  long habitat human pop.density
##    <chr>  <dbl> <chr>   <chr> <chr> <dbl> <dbl>   <dbl> <dbl>       <dbl>
##  1 AK.PEN  2006 S       F     G      57.0 -158.    254.  10.4           8
##  2 AK.PEN  2006 S       M     G      57.0 -158.    254.  10.4           8
##  3 AK.PEN  2006 A       F     G      57.0 -158.    254.  10.4           8
##  4 AK.PEN  2006 S       M     B      57.0 -158.    254.  10.4           8
##  5 AK.PEN  2006 A       M     B      57.0 -158.    254.  10.4           8
##  6 AK.PEN  2006 A       M     G      57.0 -158.    254.  10.4           8
##  7 AK.PEN  2006 A       F     G      57.0 -158.    254.  10.4           8
##  8 AK.PEN  2006 P       M     G      57.0 -158.    254.  10.4           8
##  9 AK.PEN  2006 S       F     G      57.0 -158.    254.  10.4           8
## 10 AK.PEN  2006 P       M     G      57.0 -158.    254.  10.4           8
## # … with 1,976 more rows, and 13 more variables: pack.size <dbl>,
## #   standard.habitat <dbl>, standard.human <dbl>, standard.pop <dbl>,
## #   standard.packsize <dbl>, standard.latitude <dbl>, standard.longitude <dbl>,
## #   cav.binary <dbl>, cdv.binary <dbl>, cpv.binary <dbl>, chv.binary <dbl>,
## #   neo.binary <dbl>, toxo.binary <dbl>
```
…
```
## [1] 17
```


```r
wolves_lat48<- wolves %>% 
  filter(lat<=48) %>% 
  arrange(desc(lat))
wolves_lat48
```

```
## # A tibble: 1,169 x 23
##    pop    year age.cat sex   color   lat  long habitat human pop.density
##    <chr> <dbl> <chr>   <chr> <chr> <dbl> <dbl>   <dbl> <dbl>       <dbl>
##  1 SNF    2010 S       M     G      47.7 -91.5  32018. 4558.        25.3
##  2 SNF    2010 P       M     G      47.7 -91.5  32018. 4558.        25.3
##  3 SNF    2010 S       F     G      47.7 -91.5  32018. 4558.        25.3
##  4 SNF    2010 S       F     G      47.7 -91.5  32018. 4558.        25.3
##  5 SNF    2010 P       F     G      47.7 -91.5  32018. 4558.        25.3
##  6 SNF    2010 P       M     G      47.7 -91.5  32018. 4558.        25.3
##  7 SNF    2010 S       F     G      47.7 -91.5  32018. 4558.        25.3
##  8 SNF    2010 A       F     G      47.7 -91.5  32018. 4558.        25.3
##  9 SNF    2010 S       M     G      47.7 -91.5  32018. 4558.        25.3
## 10 SNF    2010 S       M     G      47.7 -91.5  32018. 4558.        25.3
## # … with 1,159 more rows, and 13 more variables: pack.size <dbl>,
## #   standard.habitat <dbl>, standard.human <dbl>, standard.pop <dbl>,
## #   standard.packsize <dbl>, standard.latitude <dbl>, standard.longitude <dbl>,
## #   cav.binary <dbl>, cdv.binary <dbl>, cpv.binary <dbl>, chv.binary <dbl>,
## #   neo.binary <dbl>, toxo.binary <dbl>
```
…
