…
2. What are the min, max, and mean `sleep_total` for all of the mammals? Be sure to include the total n.

```r
msleep %>%
  group_by(name) %>% 
  summarize(min_sleep_total=min(sleep_total, na.rm = TRUE),
            max_sleep_total=max(sleep_total, na.rm = TRUE),
            mean_sleep_total=mean(sleep_total, na.rm = TRUE),
            total=n())
```

```
## # A tibble: 83 x 5
##    name                   min_sleep_total max_sleep_total mean_sleep_total total
##  * <chr>                            <dbl>           <dbl>            <dbl> <int>
##  1 African elephant                   3.3             3.3              3.3     1
##  2 African giant pouched…             8.3             8.3              8.3     1
##  3 African striped mouse              8.7             8.7              8.7     1
##  4 Arctic fox                        12.5            12.5             12.5     1
##  5 Arctic ground squirrel            16.6            16.6             16.6     1
##  6 Asian elephant                     3.9             3.9              3.9     1
##  7 Baboon                             9.4             9.4              9.4     1
##  8 Big brown bat                     19.7            19.7             19.7     1
##  9 Bottle-nosed dolphin               5.2             5.2              5.2     1
## 10 Brazilian tapir                    4.4             4.4              4.4     1
## # … with 73 more rows
```
…
